﻿britroc_ID,wgs_ID,status,topup_sequencing
1,1_normal_JBLAB-4301,final,
1,1_tumor_JBLAB-4103,final,
2,2_normal_JBLAB-4302,final,Y
2,2_tumor_JBLAB-4104,final,Y
6,6_normal_JBLAB-4306,final,
6,6_tumor_JBLAB-4110,final,
8,8_normal_JBLAB-4308,final,
8,8_tumor_JBLAB-4112,final,
9,9_normal_JBLAB-4309,final,
9,9_tumor_JBLAB-4113,final,
11,11_normal_JBLAB-4311,final,
11,11_tumor_JBLAB-4115,final,
14,14_normal_JBLAB-4364,final,
14,14_tumor_JBLAB-4118,final,
16,16_normal_JBLAB-4315,final,
16,16_tumor_JBLAB-4120,final,
17,17_normal_JBLAB-4316,final,Y
17,17_tumor_JBLAB-4121,final,Y
21,21_normal_JBLAB-4336,final,Y
21,21_tumor_JBLAB-4126,final,Y
22,22_normal_JBLAB-4806,final,
22,22_tumor_JBLAB-4127,final,
23,23_normal_JBLAB-4365,drop,
23,23_tumor_JBLAB-4128,drop,
24,24_normal_JBLAB-4807,drop,
24,24_tumor_JBLAB-4129,drop,
28,28_normal_JBLAB-4808,final,
28,28_tumor_JBLAB-4134,final,
31,31_normal_JBLAB-4366,final,
31,31_tumor_JBLAB-4138,final,
32,32_normal_JBLAB-4811,drop,
32,32_tumor_JBLAB-4238,drop,
34,34_normal_JBLAB-4324,final,
34,34_tumor_JBLAB-4141,final,
35,35_normal_JBLAB-4367,drop,
35,35_tumor_JBLAB-4142,drop,
36,36_normal_JBLAB-4325,final,
36,36_tumor_JBLAB-4143,final,
37,37_normal_JBLAB-4326,final,
37,37_tumor_JBLAB-4144,final,
38,38_normal_JBLAB-4327,drop,
38,38_tumor_JBLAB-4145,drop,
41,41_normal_JBLAB-4812,final,Y
41,41_tumor_JBLAB-4150,final,Y
42,42_normal_JBLAB-4330,final,
42,42_tumor_JBLAB-4151,final,
45,45_normal_JBLAB-4369,final,
45,45_tumor_JBLAB-4152,final,
46,46_normal_JBLAB-4814,final,Y
46,46_tumor_JBLAB-4155,final,Y
47,47_normal_JBLAB-4331,final,Y
47,47_tumor_JBLAB-4157,final,Y
48,48_normal_JBLAB-4332,final,
48,48_tumor_JBLAB-4158,final,
49,49_normal_JBLAB-4333,drop,
49,49_tumor_JBLAB-4159,drop,
52,52_normal_JBLAB-4334,final,
52,52_tumor_JBLAB-4162,final,
53,53_normal_JBLAB-4816,drop,
53,53_tumor_JBLAB-4163,drop,
55,55_normal_JBLAB-4370,final,
55,55_tumor_JBLAB-4166,final,
60,60_normal_JBLAB-4820,final,
60,60_tumor_JBLAB-4171,final,
61,61_normal_JBLAB-4821,final,
61,61_tumor_JBLAB-4172,final,
62,62_normal_JBLAB-4359,final,
62,62_tumor_JBLAB-4173,final,
65,65_normal_JBLAB-4822,final,
65,65_tumor_JBLAB-4177,final,
66,66_normal_JBLAB-4823,final,Y
66,66_tumor_JBLAB-4178,final,Y
74,74_normal_JBLAB-4825,final,
74,74_tumor_JBLAB-4189,final,
77,77_normal_JBLAB-4337,final,
77,77_tumor_JBLAB-4192,final,
79,79_normal_JBLAB-4339,drop,
79,79_tumor_JBLAB-4194,drop,
84,84_normal_JBLAB-4340,drop,
84,84_tumor_JBLAB-4199,drop,
88,88_normal_JBLAB-4374,drop,
88,88_tumor_JBLAB-4205,drop,
93,93_normal_JBLAB-4342,final,Y
93,93_tumor_JBLAB-4210,final,Y
94,94_normal_JBLAB-4343,final,
94,94_tumor_JBLAB-4211,final,
95,95_normal_JBLAB-4348,drop,
95,95_tumor_JBLAB-4212,drop,
99,99_normal_JBLAB-4833,final,
99,99_tumor_JBLAB-4217,final,
100,100_normal_JBLAB-4376,final,
100,100_tumor_JBLAB-4218,final,
103,103_normal_JBLAB-4349,final,
103,103_tumor_JBLAB-4221,final,
106,106_normal_JBLAB-4350,final,
106,106_tumor_JBLAB-4223,final,
109,109_normal_JBLAB-4834,drop,
109,109_tumor_JBLAB-4225,drop,
112,112_normal_JBLAB-4381,final,
112,112_tumor_JBLAB-4227,final,
113,113_normal_JBLAB-4345,final,
113,113_tumor_JBLAB-4228,final,
116,116_normal_JBLAB-4351,final,
116,116_tumor_JBLAB-4230,final,
119,119_normal_JBLAB-4383,final,
119,119_tumor_JBLAB-4232,final,
127,127_normal_JBLAB-4388,final,
127,127_tumor_JBLAB-4246,final,Y
129,129_normal_JBLAB-4390,final,
129,129_tumor_JBLAB-4248,final,
131,131_normal_JBLAB-4836,final,
131,131_tumor_JBLAB-4251,final,
132,132_normal_JBLAB-4392,final,
132,132_tumor_JBLAB-4252,final,
134,134_normal_JBLAB-4394,final,
134,134_tumor_JBLAB-4254,final,
137,137_normal_JBLAB-4397,final,
137,137_tumor_JBLAB-4258,final,
139,139_normal_JBLAB-4398,final,
139,139_tumor_JBLAB-4260,final,

