ID	amp_FBI
f6c811ff-f22e-490b-9b23-b527d20e6e6d	0.00896860986547085
a330a96e-9897-4605-b5f1-5b5ef45cd365	0
e45f3391-2e74-4767-817a-280cebac7c57	0.0075187969924812
efec3225-de07-4559-9a90-95223495cc61	0
e4aaca83-3ae9-47f6-a975-c144767ad705	0
745b8756-0eab-423f-8cde-e0ff1aaa6596	0.0818181818181818
6f981023-4269-4e8e-a4ab-2c92bb27273c	0.00411522633744856
7fdd07a4-4a27-40c3-af92-a0074e6391f5	0.0930232558139535
e6f7344b-951f-4f3f-b140-7bf53164c462	0.0456852791878173
bbb2cf2f-8f32-43d4-846c-d1020e6329ec	0.0227272727272727
efbec43c-0c16-4006-abe8-c3ec2ec42c05	0.0136986301369863
a3135834-3af0-4e98-bc6f-ad8ddf33db80	0
2b4feb84-89e4-4c38-8561-5ffab02c8132	0.0117647058823529
4e913899-eeb8-4630-ba9d-41a81ced8069	0
d392ded3-afc8-4c79-b278-40245f18f2f8	0
86f23897-dba0-4e89-8381-d174eaa6fcc1	0.0043859649122807
42465bbd-289b-4e96-98fe-76809c5e1520	0.0258064516129032
6c31d730-1734-44ac-92b3-760981528723	0
6821446e-8e76-46fe-b0b9-47feb46d2585	0.0134228187919463
941fcb56-e059-403d-aab1-0692a3ecc45e	0.012448132780083
cd9efdef-a7fb-49e5-9515-63606ae8bbfc	0.00684931506849315
b97941dd-9844-4db2-9e25-42c725f47d70	0
e84debc4-b47d-48ed-a0d0-2859f0ebf987	0.00617283950617284
f988e698-9b34-45ce-ba4c-74e06e9cae4a	0.00909090909090909
2a8d63eb-0174-4213-9214-413f391f512c	0.00598802395209581
0d0793c1-df1b-4db1-ba36-adcb960cc0f5	0
53bcbb68-addd-47fc-9910-cd1d3f38197d	0
669f0e01-28f6-4ed8-bdb5-73f84ea28f78	0.0202020202020202
c767254e-b289-4904-a80f-050cf01ff8ba	0
51b25b37-f75c-4380-a0f6-5273e0b7ee33	0
12874085-a596-41ae-b4cd-817cb1ebb278	0.0152284263959391
9aecfc8f-62ea-4acf-aa00-d1f0fe6c6556	0
b75b2663-dcc6-411c-bfcc-574aa33cf388	0.0173913043478261
2b40a733-7a63-4bb8-a953-95a4ee28f962	0
cf6c7066-6611-43ec-aef1-295a976cce5b	0
d2e4dc23-992d-4e44-add4-2972718083cb	0.0240963855421687
d4bf6034-aeae-48a6-907b-10e2cc904015	0
37522f18-77b2-4414-8df8-3c2c8048adba	0
6ce42746-88aa-485f-a1c4-1759aad95914	0
25f73b03-4ba8-47ba-ad80-6ccb82105c98	0.0122699386503067
5b560f4c-d2a3-43fa-b394-abef78bdefc1	0.0288461538461538
8b28f6d2-4b7d-493b-826e-b119a4fb0cb4	0
0009b464-b376-4fbc-8a56-da538269a02f	0.027027027027027
6fffe0cf-bb38-4e77-88ab-a256bd7fbbce	0
d8c2b4b2-e12b-43d2-bafc-87b29f027797	0.00506329113924051
f26b1f44-12de-43ba-85bb-bc61741a5a88	0.0201612903225806
0ead45d8-d785-4404-8319-2ef951e02e03	0
bc9b66f5-fcb8-4545-ab2d-438bb810edc0	0
da43386c-47f8-4e03-b6ca-8b94e13792e7	0
504cdfc5-6721-43ef-b31e-fdf52f0cd9cd	0
f858d813-f3c5-4ad9-8c20-9f231d6624d8	0.00851788756388416
8888e808-594b-4c76-b2e4-62aa56736f7c	0
c2ec7f57-8510-4bbf-a2e9-dbd9ce8dcad1	0.00515463917525773
9e6806c4-d331-4025-abee-2f576e3bf182	0.00746268656716418
5d922e48-aa70-454d-9417-c9af686feebc	0
4679f37a-4f09-449b-a1d8-1f02847996da	0
1659bae5-3140-4d05-891c-81b48277b2fc	0.0193050193050193
3c2b1509-1eb9-4b79-9569-57810f291499	0
f1504811-8363-41e6-b43c-62452b1262d3	0.0274509803921569
3a6bce45-0431-49d8-82df-b1d9a738e5a6	0
01df36af-3617-40fc-9892-f54ce433cf71	0
dce54d09-9827-4fe2-abe1-c5b7d528ba7f	0.00395256916996047
ae82fead-2671-4335-a342-67bb69935ad9	0.0145985401459854
bbe59385-5f83-43f6-a485-517c860bef6f	0
dbbd54db-4470-4df6-b5be-3e175c7133b0	0.0110497237569061
123c9d1c-72ba-4d82-8e57-d5caa52a40ba	0
89dad92e-5b3f-479a-a6da-a94ee7df7f8a	0.00726392251815981
09508a0d-ebe0-4fa1-b7b2-1710814181cd	0.00388098318240621
f6189828-eeaa-4d21-b163-53bf3d47a640	0
84ca6ab0-9edc-4636-9d27-55cdba334d7d	0.00417827298050139
46f19b5c-3eba-4b23-a1ab-9748090ca4e5	0.0211640211640212
a0bbb3b1-e774-4c75-9301-ba43fb803f20	0.0344827586206897
0ae2193f-0d68-485a-b8c2-7568cbcce33e	0
3a5eaed6-fcfd-437a-b61c-fd3725c64717	0.00649350649350649
1be8fa2c-8fea-4e8c-90db-c04d9fcdbf49	0.0491803278688525
052665d1-ab75-4f40-be5a-b88154c8beed	0
b243adb4-b3e7-4e0e-bc0d-625aa8dbb1be	0.00555555555555556
fea5827b-251d-474b-8713-fc76db995fe7	0.0151975683890578
35ceba07-0759-4fbe-b076-af821a528cf0	0.0588235294117647
6797443c-eb4a-4654-b957-c0056e5a4206	0
7a921087-8e62-4a93-a757-fd8cdbe1eb8f	0.00304878048780488
5533240d-8fed-440d-b781-6092785a77ce	0.0769230769230769
e9d98643-01ee-40c3-a617-e004559625cd	0
127b0f7d-d24e-48b7-ac25-d3f14a43952d	0.00368324125230203
95fc38ac-2b36-4c46-abbf-8d2d52ff9626	0.0265486725663717
d67cad13-e849-48b0-926c-10b6046ba0b9	0
2f2eaecc-6509-423f-b63a-8c3bea1ba4a4	0
14ed7388-41ed-43d4-afb2-04cd6410d5d2	0
0664753b-7566-41e0-8006-7009c6735406	0.00909090909090909
a1fc7064-abf5-477d-983e-576a784e1d40	0.0102040816326531
c9959f68-c385-4c1f-9188-8203844d288e	0.00418410041841004
33ea81f2-db2c-4567-bd7b-4cb9aadfef88	0
8093649a-74d6-4832-9154-8cc0182fa381	0.0181818181818182
bff518fb-6da7-4dfc-ae4c-bd3f641028e2	0.0180451127819549
9a5bb831-8cb8-4de0-b94b-088cb38def1a	0.0326704545454545
16df7888-2480-4394-8856-d57a6ef371d2	0.0184049079754601
1292e13b-d7c6-447b-a227-9a8113215580	0.00977198697068404
8a69f3ca-4e17-4daa-8722-a36316e345ba	0.0033003300330033
9020b6a5-8325-4b0d-84d9-04371c857910	0
ff3fe4a3-7d19-4d4d-81b6-aaa41ba5bf39	0.0600706713780919
129de5b2-d9b0-4762-9ef8-72d98231fb50	0.0163934426229508
44eebc04-c027-45ae-beca-c4012b494f29	0.0159151193633952
5cc7c966-499e-49e3-b509-4eeb00ee03d4	0.0101010101010101
42af8f74-fd4b-486d-bc11-db53cc471d62	0.00384615384615385
c691d6b3-8e70-4951-8551-2ee4e4d0d10b	0
8658f4f5-9a50-4195-8ea3-227951977647	0.00578034682080925
80f02aec-c07a-4bcb-b547-e60f8c33a7b1	0.00836820083682008
1dc9e7fd-fc62-4b32-9619-4e02a266a385	0.00694444444444444
2c9dc04b-e9ec-4cf1-ab2c-a18edb30dd37	0
58faf969-bf37-4180-8807-2f44f2cc8eda	0.0493827160493827
17ed8831-a261-42d9-8ff3-cf75a6cb2a24	0.0176470588235294
